<?xml version="1.0" encoding="utf-8"?>
<!-- Generator: Adobe Illustrator 21.1.0, SVG Export Plug-In . SVG Version: 6.00 Build 0)  -->
<svg version="1.1" id="Livello_1" xmlns="http://www.w3.org/2000/svg" xmlns:xlink="http://www.w3.org/1999/xlink" x="0px" y="0px"
	 viewBox="0 0 68.9 68.9" style="enable-background:new 0 0 68.9 68.9;" xml:space="preserve">
<g>
	<g>
		<path d="M65.4,66.8h-62c-0.6,0-1-0.4-1-1s0.4-1,1-1h62c0.6,0,1,0.4,1,1S66,66.8,65.4,66.8z"/>
	</g>
	<g>
		<path d="M21.4,66.8h-16c-0.6,0-1-0.4-1-1v-18c0-0.3,0.1-0.5,0.3-0.7l7.6-7.6c0.2-0.2,0.4-0.3,0.7-0.3h5.4c0.6,0,1,0.4,1,1
			s-0.4,1-1,1h-5l-7,7v16.6h15c0.6,0,1,0.4,1,1S22,66.8,21.4,66.8z"/>
	</g>
	<g>
		<path d="M63.4,66.8h-16c-0.6,0-1-0.4-1-1s0.4-1,1-1h15V48.2l-7-7h-5c-0.6,0-1-0.4-1-1s0.4-1,1-1h5.4c0.3,0,0.5,0.1,0.7,0.3
			l7.6,7.6c0.2,0.2,0.3,0.4,0.3,0.7v18C64.4,66.4,64,66.8,63.4,66.8z"/>
	</g>
	<g>
		<path d="M50.4,66.8h-32c-0.6,0-1-0.4-1-1v-46c0-0.3,0.1-0.5,0.3-0.7l16-16c0.4-0.4,1-0.4,1.4,0l16,16c0.2,0.2,0.3,0.4,0.3,0.7v46
			C51.4,66.4,51,66.8,50.4,66.8z M19.4,64.8h30V20.2l-15-15l-15,15V64.8z"/>
	</g>
	<g>
		<rect x="33.4" y="17.8" width="2" height="18"/>
	</g>
	<g>
		<rect x="28.4" y="21.8" width="12" height="2"/>
	</g>
	<g>
		<path d="M45.4,66.8h-22V52.1c0-6.1,4.9-11,11-11s11,4.9,11,11V66.8z M25.4,64.8h18V52.1c0-5-4-9-9-9s-9,4-9,9V64.8z"/>
	</g>
	<g>
		<rect x="33.4" y="42.1" width="2" height="22.7"/>
	</g>
	<g>
		<rect x="25" y="47.8" width="19.4" height="2"/>
	</g>
	<g>
		<path d="M59.4,60.8h-5c-0.6,0-1-0.4-1-1v-7c0-0.3,0.2-0.6,0.4-0.8c0.3-0.2,0.6-0.2,0.9-0.1l5,2c0.4,0.2,0.6,0.5,0.6,0.9v5
			C60.4,60.4,60,60.8,59.4,60.8z M55.4,58.8h3v-3.3l-3-1.2V58.8z"/>
	</g>
	<g>
		<path d="M14.4,60.8h-5c-0.6,0-1-0.4-1-1v-5c0-0.4,0.2-0.8,0.6-0.9l5-2c0.3-0.1,0.7-0.1,0.9,0.1c0.3,0.2,0.4,0.5,0.4,0.8v7
			C15.4,60.4,15,60.8,14.4,60.8z M10.4,58.8h3v-4.5l-3,1.2V58.8z"/>
	</g>
</g>
</svg>
