<?xml version="1.0" encoding="utf-8"?>
<!-- Generator: Adobe Illustrator 16.0.3, SVG Export Plug-In . SVG Version: 6.00 Build 0)  -->
<!DOCTYPE svg PUBLIC "-//W3C//DTD SVG 1.1//EN" "http://www.w3.org/Graphics/SVG/1.1/DTD/svg11.dtd" [
	<!ENTITY st0 "fill:none;stroke:#333;stroke-width:2;stroke-miterlimit:10;">
	<!ENTITY st1 "fill:#FFFFFF;">
]>
<svg version="1.1" id="Livello_1" xmlns="http://www.w3.org/2000/svg" xmlns:xlink="http://www.w3.org/1999/xlink" x="0px" y="0px"
	 width="200px" height="200px" viewBox="0 0 200 200" style="enable-background:new 0 0 200 200;" xml:space="preserve">
<g>
	<path d="M171.866,100.017c0,39.674-32.179,71.846-71.846,71.846c-39.705,0-71.887-32.172-71.887-71.846
		c0-39.699,32.182-71.879,71.887-71.879C139.688,28.137,171.866,60.318,171.866,100.017z"/>
	<path style="&st1;" d="M108.49,91.491h20.385l8.12-34.941c0,0-12.431,0-15.193,0c-2.758,0-4.295,4.733-4.295,4.733
		c-2.893-1.994-6.084-3.79-9.725-4.62c-15.115-3.476-30.222,5.78-34.003,20.411l-8.445,36.823
		c-2.324,14.391,6.305,26.829,21.025,30.213c14.729,3.415,30.162-3.476,34.392-17.428c0,0,0.61-2.419,0.653-2.699l3.981-17.022
		c0,0-15.224,0-16.098,0c-2.706,0-4.82,2.564-5.39,4.68l-0.595,2.667l-1.721,7.245c-1.109,4.464-5.572,7.251-10.098,6.188
		c-4.495-1.021-7.307-5.486-6.34-9.993l0,0c0,0,8.608-37.316,8.621-37.359c1.047-4.549,5.587-7.37,10.132-6.333
		c4.52,1.056,7.371,5.589,6.319,10.143C110.217,84.222,108.49,91.491,108.49,91.491z"/>
</g>
<path style="&st0;" d="M176.232,100c0-42.103-34.13-76.233-76.232-76.233">
	<animateTransform attributeType="xml" attributeName="transform" type="rotate" from="0 100 100" to="360 100 100" dur="1.5s" repeatCount="indefinite"/>
</path>

<path style="&st0;" d="M18.261,100c0,45.143,36.596,81.738,81.739,81.738">
	<animateTransform attributeType="xml" attributeName="transform" type="rotate" from="0 100 100" to="360 100 100" dur="1.75s" repeatCount="indefinite"/>
</path>

<path style="&st0;" d="M100,13.229c-47.922,0-86.771,38.849-86.771,86.771">
	<animateTransform attributeType="xml" attributeName="transform" type="rotate" from="0 100 100" to="360 100 100" dur="2s" repeatCount="indefinite"/>
</path>

</svg>
